<?xml version="1.0" encoding="utf-8"?>
<!-- Generator: Adobe Illustrator 19.2.0, SVG Export Plug-In . SVG Version: 6.00 Build 0)  -->
<svg version="1.1" id="Layer_1" xmlns="http://www.w3.org/2000/svg" xmlns:xlink="http://www.w3.org/1999/xlink" x="0px" y="0px"
	 width="30px" height="30px" viewBox="0 0 30 30" style="enable-background:new 0 0 30 30;" xml:space="preserve">
<style type="text/css">
	.st0{fill:none;stroke:#FFFFFF;stroke-width:2.5;stroke-miterlimit:10;}
	.st1{fill:#6E6D6E;}
</style>
<g>
	<path class="st0" d="M0,6.7"/>
</g>
<g>
	<path class="st0" d="M3.4,15.5"/>
</g>
<rect x="8.7" y="5.8" class="st1" width="18.8" height="2.9"/>
<rect x="2.6" y="5.8" class="st1" width="2.9" height="2.9"/>
<rect x="8.6" y="13.7" class="st1" width="18.8" height="2.9"/>
<rect x="2.5" y="13.7" class="st1" width="2.9" height="2.9"/>
<rect x="8.7" y="21.7" class="st1" width="18.8" height="2.9"/>
<rect x="2.6" y="21.7" class="st1" width="2.9" height="2.9"/>
</svg>
