<?xml version="1.0" encoding="utf-8"?>
<!-- Generator: Adobe Illustrator 19.2.0, SVG Export Plug-In . SVG Version: 6.00 Build 0)  -->
<svg version="1.1" id="Layer_1" xmlns="http://www.w3.org/2000/svg" xmlns:xlink="http://www.w3.org/1999/xlink" x="0px" y="0px"
	 width="30px" height="30px" viewBox="0 0 30 30" style="enable-background:new 0 0 30 30;" xml:space="preserve">
<style type="text/css">
	.st0{fill:#6E6D6E;}
</style>
<path class="st0" d="M24.5,17.4c-0.7-1.9-1.2-4.7-1.2-7.8c0-1.7-0.7-3.3-2-4.7c-1.3-1.5-3-2.3-5.1-2.7c0.1-0.2,0.1-0.4,0.1-0.7
	c0-0.9-0.7-1.6-1.6-1.6s-1.6,0.7-1.6,1.6c0,0.2,0.1,0.4,0.1,0.7c-2.1,0.3-3.8,1.2-5.1,2.7c-1.3,1.5-2,3-2,4.7c0,3.1-0.5,5.9-1.2,7.8
	c-0.3,1-0.8,1.8-1.2,2.7c-0.5,0.8-1,1.5-1.4,2c-0.5,0.5-1,1-1.5,1.5c0,0.6,0.2,1.1,0.6,1.5c0.4,0.4,0.9,0.6,1.5,0.6h7.5
	c0,1.2,0.4,2.2,1.3,3c0.8,0.8,1.8,1.3,3,1.3s2.2-0.4,3-1.3c0.8-0.8,1.3-1.8,1.3-3h7.5c0.6,0,1.1-0.2,1.5-0.6
	c0.4-0.4,0.6-0.9,0.6-1.5c-0.6-0.5-1.1-1-1.5-1.5c-0.5-0.5-0.9-1.2-1.4-2C25.3,19.3,24.8,18.4,24.5,17.4z M14.8,28.7
	c-0.8,0-1.5-0.3-2.1-0.9c-0.6-0.6-0.9-1.3-0.9-2.1c0-0.2,0.1-0.3,0.3-0.3c0.2,0,0.3,0.1,0.3,0.3c0,0.7,0.2,1.2,0.7,1.7
	c0.5,0.5,1.1,0.7,1.7,0.7c0.2,0,0.3,0.1,0.3,0.3C15,28.6,15,28.7,14.8,28.7z M3.9,23.6c3-3.3,4.5-8,4.5-13.9c0-1.1,0.6-2.4,1.6-3.5
	c1-1.1,2.8-1.9,4.9-1.9s3.9,0.8,4.9,1.9c1,1.1,1.6,2.3,1.6,3.5c0,5.9,1.5,10.6,4.5,13.9H3.9z"/>
</svg>
