<?xml version="1.0" encoding="utf-8"?>
<!-- Generator: Adobe Illustrator 19.2.0, SVG Export Plug-In . SVG Version: 6.00 Build 0)  -->
<svg version="1.1" id="Layer_1" xmlns="http://www.w3.org/2000/svg" xmlns:xlink="http://www.w3.org/1999/xlink" x="0px" y="0px"
	 width="30px" height="30px" viewBox="0 0 30 30" style="enable-background:new 0 0 30 30;" xml:space="preserve">
<style type="text/css">
	.st0{fill:#6E6D6E;}
</style>
<path class="st0" d="M27.3,6c-1.5,0.1-2.6,1.3-2.5,2.7c0,0.1,0,0.2,0,0.3l-7.6,5.7l-3.8-4.4L3.8,19c-0.4-0.2-0.7-0.3-1.2-0.3
	c-1.5,0-2.6,1.2-2.6,2.6S1.2,24,2.6,24c1.5,0,2.6-1.2,2.6-2.6c0-0.1,0-0.2,0-0.3l7.9-7.2l3.7,4.2l9.4-7.1c0.4,0.2,0.8,0.3,1.2,0.3
	c1.5-0.1,2.6-1.3,2.5-2.7C29.9,7.1,28.7,5.9,27.3,6z"/>
</svg>
